module gitlab.com/agravgaard/turingpi-maintainer

go 1.22.0

toolchain go1.22.3

require (
	github.com/prometheus/client_golang v1.20.3
	github.com/stretchr/testify v1.9.0
	k8s.io/api v0.30.2
	k8s.io/apimachinery v0.30.2
	k8s.io/client-go v0.30.2
	k8s.io/klog/v2 v2.120.1
	periph.io/x/conn/v3 v3.7.0
	periph.io/x/host/v3 v3.8.2
)

require (
	github.com/beorn7/perks v1.0.1 // indirect
	github.com/cespare/xxhash/v2 v2.3.0 // indirect
	github.com/davecgh/go-spew v1.1.1 // indirect
	github.com/emicklei/go-restful/v3 v3.12.1 // indirect
	github.com/go-logr/logr v1.4.2 // indirect
	github.com/go-openapi/jsonpointer v0.21.0 // indirect
	github.com/go-openapi/jsonreference v0.21.0 // indirect
	github.com/go-openapi/swag v0.23.0 // indirect
	github.com/gogo/protobuf v1.3.2 // indirect
	github.com/golang/protobuf v1.5.4 // indirect
	github.com/google/gnostic-models v0.6.9-0.20230804172637-c7be7c783f49 // indirect
	github.com/google/gofuzz v1.2.0 // indirect
	github.com/google/uuid v1.6.0 // indirect
	github.com/josharian/intern v1.0.0 // indirect
	github.com/json-iterator/go v1.1.12 // indirect
	github.com/klauspost/compress v1.17.9 // indirect
	github.com/mailru/easyjson v0.7.7 // indirect
	github.com/modern-go/concurrent v0.0.0-20180306012644-bacd9c7ef1dd // indirect
	github.com/modern-go/reflect2 v1.0.2 // indirect
	github.com/munnerz/goautoneg v0.0.0-20191010083416-a7dc8b61c822 // indirect
	github.com/pmezard/go-difflib v1.0.0 // indirect
	github.com/prometheus/client_model v0.6.1 // indirect
	github.com/prometheus/common v0.55.0 // indirect
	github.com/prometheus/procfs v0.15.1 // indirect
	golang.org/x/net v0.26.0 // indirect
	golang.org/x/oauth2 v0.21.0 // indirect
	golang.org/x/sys v0.22.0 // indirect
	golang.org/x/term v0.21.0 // indirect
	golang.org/x/text v0.16.0 // indirect
	golang.org/x/time v0.5.0 // indirect
	google.golang.org/protobuf v1.34.2 // indirect
	gopkg.in/inf.v0 v0.9.1 // indirect
	gopkg.in/yaml.v2 v2.4.0 // indirect
	gopkg.in/yaml.v3 v3.0.1 // indirect
	k8s.io/kube-openapi v0.0.0-20240521193020-835d969ad83a // indirect
	k8s.io/utils v0.0.0-20240502163921-fe8a2dddb1d0 // indirect
	sigs.k8s.io/json v0.0.0-20221116044647-bc3834ca7abd // indirect
	sigs.k8s.io/structured-merge-diff/v4 v4.4.1 // indirect
	sigs.k8s.io/yaml v1.4.0 // indirect
)
